…
## q05_biostats_feature_matrix
```
┌──────────────────────────────────┬──────────────────┬──────────────┬───────────────────────────┬───────────────┬────────────────────┬─────────────┬───────────────┬─────────────────────┬────────────────────┬─────────────────────┬─────────────────────┬────────────────┬────────────────────┬───────────────────────┬──────────────┐
│        patient_sk_masked         │ age_at_diagnosis │ sex_at_birth │ ancestry_super_population │  tumor_type   │ stage_at_diagnosis │  trial_id   │ treatment_arm │ baseline_panel_size │ mrd_status_d90_int │ mrd_status_d180_int │ mrd_status_d365_int │ event_observed │ time_to_event_days │ recurrence_within_2yr │ event_status │
│             varchar              │      int32       │   varchar    │          varchar          │    varchar    │      varchar       │   varchar   │    varchar    │        int32        │       int32        │        int32        │        int32        │     int32      │       int64        │        boolean        │   varchar    │
├──────────────────────────────────┼──────────────────┼──────────────┼───────────────────────────┼───────────────┼────────────────────┼─────────────┼───────────────┼─────────────────────┼────────────────────┼─────────────────────┼─────────────────────┼────────────────┼────────────────────┼───────────────────────┼──────────────┤
│ 00788683e6256ff069785dea618d8750 │               65 │ male         │ EUR                       │ colorectal    │ IV                 │ NULL        │ NULL          │                  16 │                  0 │                   0 │                   0 │              1 │                720 │ true                  │ event        │
│ 0202af1b535039963977ae2198095af5 │               63 │ male         │ AMR                       │ lung_nsclc    │ I                  │ NULL        │ NULL          │                  16 │                  0 │                   0 │                   0 │              0 │               NULL │ false                 │ censored     │
│ 07786236e5d49b3135d058ee9e4a88a4 │               55 │ female       │ SAS                       │ head_and_neck │ III                │ NULL        │ NULL          │                  16 │                  0 │                   0 │                   1 │              1 │                720 │ true                  │ event        │
│ 0a60305820dfc485e0eb0f7d8872baf8 │               40 │ male         │ EUR                       │ lung_nsclc    │ IV                 │ NCT33333333 │ experimental  │                  16 │                  1 │                   1 │                NULL │              1 │                180 │ true                  │ event        │
│ 0b7e5f1a6f57d53cd693363c67fee221 │               53 │ male         │ AFR                       │ colorectal    │ II                 │ NCT33333333 │ experimental  │                  16 │                  0 │                   0 │                   0 │              0 │               NULL │ false                 │ censored     │
│ 0bf9821317c49058689b6e908a28708a │               45 │ female       │ AMR                       │ breast        │ II                 │ NULL        │ NULL          │                  16 │                  0 │                   0 │                   0 │              0 │               NULL │ false                 │ censored     │
│ 0ce9ffd8c0d1bca1b887c151dee0eb9f │               67 │ male         │ AFR                       │ colorectal    │ I                  │ NULL        │ NULL          │                  16 │                  0 │                   0 │                   0 │              0 │               NULL │ false                 │ censored     │
│ 0f7718c4a4e140711800c02b0136ec62 │               48 │ male         │ AFR                       │ melanoma      │ IV                 │ NULL        │ NULL          │                  16 │                  0 │                   1 │                NULL │              1 │                270 │ true                  │ event        │
│ 1aca6c466b50af34679ae6c2c361906c │               57 │ female       │ EAS                       │ colorectal    │ II                 │ NULL        │ NULL          │                  16 │                  0 │                   0 │                   1 │              1 │                810 │ false                 │ event        │
│ 1c86913ff5360133b733eea2b6ceedc3 │               68 │ female       │ AFR                       │ prostate      │ I                  │ NULL        │ NULL          │                  16 │                  0 │                   0 │                   0 │              0 │               NULL │ false                 │ censored     │
│ 1f2be3d276d3873dd5f99f0b01948057 │               63 │ female       │ AFR                       │ breast        │ IV                 │ NULL        │ NULL          │                  16 │                  1 │                   1 │                NULL │              1 │                270 │ true                  │ event        │
│ 1f50852f4863c71d79338df1d1927c36 │               40 │ female       │ AFR                       │ melanoma      │ II                 │ NULL        │ NULL          │                  16 │                  0 │                   0 │                   0 │              1 │                720 │ true                  │ event        │
│ 2af4f9119b55b659835d5b51350d8cae │               69 │ male         │ SAS                       │ breast        │ III                │ NULL        │ NULL          │                  16 │                  0 │                   0 │                   0 │              1 │               1260 │ false                 │ event        │
│ 2b286a480371bc0377fadb1df7087c4f │               46 │ male         │ AFR                       │ colorectal    │ III                │ NULL        │ NULL          │                  16 │                  0 │                   0 │                   0 │              0 │               NULL │ false                 │ censored     │
│ 2d7a55a6290cf979ec8f1199b3af52ce │               72 │ female       │ AFR                       │ colorectal    │ III                │ NULL        │ NULL          │                  16 │                  0 │                   0 │                   1 │              1 │                450 │ true                  │ event        │
│ 3bc882a343cd766fb810a75f94608bb8 │               73 │ female       │ EAS                       │ head_and_neck │ IV                 │ NULL        │ NULL          │                  16 │                  0 │                   0 │                   0 │              1 │                630 │ true                  │ event        │
│ 3e8e2cbedbfe621e8caac072c0a51400 │               75 │ male         │ EUR                       │ breast        │ I                  │ NULL        │ NULL          │                  16 │                  0 │                   0 │                   0 │              0 │               NULL │ false                 │ censored     │
│ 401b7d7f10e7bc2f60018e88f8555f40 │               71 │ female       │ AMR                       │ melanoma      │ I                  │ NULL        │ NULL          │                  16 │                  0 │                   0 │                   0 │              0 │               NULL │ false                 │ censored     │
│ 403531e4ddb9a406bc246e1190967772 │               76 │ male         │ AFR                       │ pancreatic    │ IV                 │ NULL        │ NULL          │                  16 │                  1 │                   1 │                NULL │              1 │                180 │ true                  │ event        │
│ 43c32ce2efa046465ab590642c6fc20d │               58 │ male         │ EAS                       │ colorectal    │ II                 │ NCT11111111 │ experimental  │                  16 │                  0 │                   0 │                   0 │              1 │               1350 │ false                 │ event        │
│                ·                 │                · │  ·           │  ·                        │   ·           │ ·                  │      ·      │      ·        │                   · │                  · │                   · │                   · │              · │                 ·  │   ·                   │   ·          │
│                ·                 │                · │  ·           │  ·                        │   ·           │ ·                  │      ·      │      ·        │                   · │                  · │                   · │                   · │              · │                 ·  │   ·                   │   ·          │
│                ·                 │                · │  ·           │  ·                        │   ·           │ ·                  │      ·      │      ·        │                   · │                  · │                   · │                   · │              · │                 ·  │   ·                   │   ·          │
│ 69c38b50360e78310af7a5d91f58cfea │               80 │ female       │ AFR                       │ renal         │ I                  │ NCT33333333 │ experimental  │                  16 │                  0 │                   0 │                   0 │              1 │                810 │ false                 │ event        │
│ 7cb24c47bee84ab3ca64faa110ea6013 │               60 │ male         │ AMR                       │ prostate      │ I                  │ NCT33333333 │ experimental  │                  16 │                  0 │                   1 │                   1 │              1 │                540 │ true                  │ event        │
│ 8742efe5106693e1322af4d097b672d3 │               77 │ female       │ EUR                       │ colorectal    │ I                  │ NULL        │ NULL          │                  16 │                  0 │                   0 │                   0 │              0 │               NULL │ false                 │ censored     │
│ 87ff756d6ac8e900d7d8ce63ec397258 │               72 │ male         │ SAS                       │ colorectal    │ III                │ NCT11111111 │ control       │                  16 │                  0 │                   1 │                   1 │              1 │                450 │ true                  │ event        │
│ 89227ccece1ad7f3583e4199172d8b40 │               53 │ female       │ EAS                       │ lung_nsclc    │ III                │ NULL        │ NULL          │                  16 │                  0 │                   0 │                   0 │              1 │               1530 │ false                 │ event        │
│ 916046de783c8e1578724247ee9a5253 │               59 │ male         │ EUR                       │ colorectal    │ I                  │ NULL        │ NULL          │                  16 │                  0 │                   0 │                   0 │              0 │               NULL │ false                 │ censored     │
│ 98947a4e95ce6c105ba586c908411ddb │               64 │ female       │ EUR                       │ pancreatic    │ III                │ NCT33333333 │ control       │                  16 │                  0 │                   0 │                   0 │              0 │               NULL │ false                 │ censored     │
│ 9fdae958e7505915927a131eb4a82b30 │               49 │ female       │ EUR                       │ colorectal    │ IV                 │ NULL        │ NULL          │                  16 │                  1 │                   1 │                NULL │              1 │                270 │ true                  │ event        │
│ a05fd4c222e2041add20885fc322d766 │               63 │ male         │ EAS                       │ prostate      │ I                  │ NULL        │ NULL          │                  16 │                  0 │                   0 │                   0 │              0 │               NULL │ false                 │ censored     │
│ a50d2650c7ca8a48d1fdad3ff1e35225 │               46 │ female       │ EUR                       │ breast        │ II                 │ NULL        │ NULL          │                  16 │                  0 │                   0 │                   0 │              1 │               1440 │ false                 │ event        │
│ b82f448f663362c8720ed8788ce50f58 │               57 │ male         │ EUR                       │ prostate      │ I                  │ NCT33333333 │ control       │                  16 │                  0 │                   0 │                   0 │              0 │               NULL │ false                 │ censored     │
│ c1d95da6ad8d0eac7b14e271676c7f07 │               68 │ male         │ AFR                       │ breast        │ IV                 │ NULL        │ NULL          │                  16 │                  0 │                   1 │                   1 │              1 │                360 │ true                  │ event        │
│ c78246c6be4d1464feeaed6862eb7b9d │               75 │ male         │ EAS                       │ colorectal    │ I                  │ NCT11111111 │ control       │                  16 │                  0 │                   0 │                   0 │              0 │               NULL │ false                 │ censored     │
│ cc3befeb488aa810a55bf81577ec9e04 │               46 │ female       │ EUR                       │ breast        │ III                │ NCT33333333 │ experimental  │                  16 │                  0 │                   0 │                   1 │              1 │                450 │ true                  │ event        │
│ d69181b6ad3045da4d8ead299e83c2ec │               54 │ female       │ EUR                       │ colorectal    │ I                  │ NCT11111111 │ experimental  │                  16 │                  0 │                   0 │                   0 │              0 │               NULL │ false                 │ censored     │
│ de7d8a2572ef9dad303f74e6ad0d5c99 │               80 │ female       │ EAS                       │ melanoma      │ I                  │ NULL        │ NULL          │                  16 │                  0 │                   0 │                   0 │              0 │               NULL │ false                 │ censored     │
│ e010cb25f79d6998c4417e19eb237ab4 │               71 │ female       │ SAS                       │ ovarian       │ III                │ NCT33333333 │ control       │                  16 │                  0 │                   0 │                   0 │              1 │                810 │ false                 │ event        │
│ ee59fa61036e1e99830e7b0279b761c4 │               44 │ male         │ SAS                       │ renal         │ IV                 │ NCT33333333 │ control       │                  16 │                  0 │                   0 │                   0 │              1 │                900 │ false                 │ event        │
│ f67af0c9fed2dfbc6280aaf0d932fff6 │               44 │ female       │ EAS                       │ breast        │ III                │ NULL        │ NULL          │                  16 │                  0 │                   0 │                   0 │              0 │               NULL │ false                 │ censored     │
│ fbd73ee745dc84247a116d37a0b5bb2a │               61 │ male         │ SAS                       │ renal         │ I                  │ NULL        │ NULL          │                  16 │                  0 │                   0 │                   0 │              0 │               NULL │ false                 │ censored     │
└──────────────────────────────────┴──────────────────┴──────────────┴───────────────────────────┴───────────────┴────────────────────┴─────────────┴───────────────┴─────────────────────┴────────────────────┴─────────────────────┴─────────────────────┴────────────────┴────────────────────┴───────────────────────┴──────────────┘
  48 rows (40 shown)                                                                                                                                     use .last to show entire result                                                                                                                                     16 columns
```
…
